<?xml version="1.0" encoding="UTF-8" standalone="no"?>
<!-- Created with Inkscape (http://www.inkscape.org/) -->

<svg
   xmlns:dc="http://purl.org/dc/elements/1.1/"
   xmlns:cc="http://creativecommons.org/ns#"
   xmlns:rdf="http://www.w3.org/1999/02/22-rdf-syntax-ns#"
   xmlns:svg="http://www.w3.org/2000/svg"
   xmlns="http://www.w3.org/2000/svg"
   xmlns:xlink="http://www.w3.org/1999/xlink"
   xmlns:sodipodi="http://sodipodi.sourceforge.net/DTD/sodipodi-0.dtd"
   xmlns:inkscape="http://www.inkscape.org/namespaces/inkscape"
   width="107.14777mm"
   height="98.000374mm"
   viewBox="0 0 379.65744 347.24542"
   id="svg2"
   version="1.1"
   inkscape:version="0.91 r13725"
   sodipodi:docname="guida.svg">
  <sodipodi:namedview
     id="base"
     pagecolor="#ffffff"
     bordercolor="#666666"
     borderopacity="1.0"
     inkscape:pageopacity="0.0"
     inkscape:pageshadow="2"
     inkscape:zoom="1"
     inkscape:cx="184.78333"
     inkscape:cy="156.05817"
     inkscape:document-units="px"
     inkscape:current-layer="layer1"
     showgrid="false"
     inkscape:snap-global="false"
     inkscape:window-width="1280"
     inkscape:window-height="734"
     inkscape:window-x="0"
     inkscape:window-y="27"
     inkscape:window-maximized="1"
     inkscape:snap-bbox="true"
     inkscape:bbox-paths="true"
     inkscape:object-nodes="true"
     inkscape:snap-bbox-edge-midpoints="true"
     inkscape:snap-bbox-midpoints="true"
     inkscape:bbox-nodes="true"
     fit-margin-top="0"
     fit-margin-left="0"
     fit-margin-right="0"
     fit-margin-bottom="0">
    <inkscape:grid
       enabled="true"
       gridanglex="60"
       gridanglez="30"
       empspacing="5"
       units="mm"
       id="grid4136"
       type="axonomgrid"
       originx="-150.85113"
       originy="-457.34275" />
    <inkscape:grid
       gridanglez="15"
       gridanglex="75"
       enabled="false"
       empspacing="5"
       units="mm"
       id="grid4138"
       type="axonomgrid"
       originx="-150.85113"
       originy="-457.34275" />
    <inkscape:grid
       enabled="false"
       gridanglez="45"
       gridanglex="45"
       empspacing="5"
       units="mm"
       id="grid4142"
       type="axonomgrid"
       originx="-150.85113"
       originy="-457.34275" />
  </sodipodi:namedview>
  <defs
     id="defs4">
    <marker
       inkscape:stockid="Arrow2Mend"
       orient="auto"
       refY="0"
       refX="0"
       id="marker8522"
       style="overflow:visible"
       inkscape:isstock="true">
      <path
         id="path8524"
         style="fill:#000000;fill-opacity:1;fill-rule:evenodd;stroke:#000000;stroke-width:0.625;stroke-linejoin:round;stroke-opacity:1"
         d="M 8.7185878,4.0337352 -2.2072895,0.01601326 8.7185884,-4.0017078 c -1.7454984,2.3720609 -1.7354408,5.6174519 -6e-7,8.035443 z"
         transform="scale(-0.6,-0.6)"
         inkscape:connector-curvature="0" />
    </marker>
    <marker
       inkscape:stockid="Arrow2Mend"
       orient="auto"
       refY="0"
       refX="0"
       id="marker8341"
       style="overflow:visible"
       inkscape:isstock="true">
      <path
         id="path8343"
         style="fill:#000000;fill-opacity:1;fill-rule:evenodd;stroke:#000000;stroke-width:0.625;stroke-linejoin:round;stroke-opacity:1"
         d="M 8.7185878,4.0337352 -2.2072895,0.01601326 8.7185884,-4.0017078 c -1.7454984,2.3720609 -1.7354408,5.6174519 -6e-7,8.035443 z"
         transform="scale(-0.6,-0.6)"
         inkscape:connector-curvature="0" />
    </marker>
    <marker
       inkscape:isstock="true"
       style="overflow:visible"
       id="marker8297"
       refX="0"
       refY="0"
       orient="auto"
       inkscape:stockid="Arrow2Mend">
      <path
         transform="scale(-0.6,-0.6)"
         d="M 8.7185878,4.0337352 -2.2072895,0.01601326 8.7185884,-4.0017078 c -1.7454984,2.3720609 -1.7354408,5.6174519 -6e-7,8.035443 z"
         style="fill:#000000;fill-opacity:1;fill-rule:evenodd;stroke:#000000;stroke-width:0.625;stroke-linejoin:round;stroke-opacity:1"
         id="path8299"
         inkscape:connector-curvature="0" />
    </marker>
    <marker
       inkscape:isstock="true"
       style="overflow:visible"
       id="marker8247"
       refX="0"
       refY="0"
       orient="auto"
       inkscape:stockid="Arrow2Mend">
      <path
         transform="scale(-0.6,-0.6)"
         d="M 8.7185878,4.0337352 -2.2072895,0.01601326 8.7185884,-4.0017078 c -1.7454984,2.3720609 -1.7354408,5.6174519 -6e-7,8.035443 z"
         style="fill:#000000;fill-opacity:1;fill-rule:evenodd;stroke:#000000;stroke-width:0.625;stroke-linejoin:round;stroke-opacity:1"
         id="path8249"
         inkscape:connector-curvature="0" />
    </marker>
    <marker
       inkscape:stockid="Arrow2Mend"
       orient="auto"
       refY="0"
       refX="0"
       id="marker8189"
       style="overflow:visible"
       inkscape:isstock="true">
      <path
         id="path8191"
         style="fill:#000000;fill-opacity:1;fill-rule:evenodd;stroke:#000000;stroke-width:0.625;stroke-linejoin:round;stroke-opacity:1"
         d="M 8.7185878,4.0337352 -2.2072895,0.01601326 8.7185884,-4.0017078 c -1.7454984,2.3720609 -1.7354408,5.6174519 -6e-7,8.035443 z"
         transform="scale(-0.6,-0.6)"
         inkscape:connector-curvature="0" />
    </marker>
    <marker
       inkscape:stockid="Arrow2Mend"
       orient="auto"
       refY="0"
       refX="0"
       id="marker7029"
       style="overflow:visible"
       inkscape:isstock="true">
      <path
         id="path7031"
         style="fill:#000000;fill-opacity:1;fill-rule:evenodd;stroke:#000000;stroke-width:0.625;stroke-linejoin:round;stroke-opacity:1"
         d="M 8.7185878,4.0337352 -2.2072895,0.01601326 8.7185884,-4.0017078 c -1.7454984,2.3720609 -1.7354408,5.6174519 -6e-7,8.035443 z"
         transform="scale(-0.6,-0.6)"
         inkscape:connector-curvature="0" />
    </marker>
    <marker
       inkscape:stockid="Arrow2Mend"
       orient="auto"
       refY="0"
       refX="0"
       id="marker6705"
       style="overflow:visible"
       inkscape:isstock="true">
      <path
         id="path6707"
         style="fill:#000000;fill-opacity:1;fill-rule:evenodd;stroke:#000000;stroke-width:0.625;stroke-linejoin:round;stroke-opacity:1"
         d="M 8.7185878,4.0337352 -2.2072895,0.01601326 8.7185884,-4.0017078 c -1.7454984,2.3720609 -1.7354408,5.6174519 -6e-7,8.035443 z"
         transform="scale(-0.6,-0.6)"
         inkscape:connector-curvature="0" />
    </marker>
    <marker
       inkscape:stockid="Arrow2Mend"
       orient="auto"
       refY="0"
       refX="0"
       id="marker6049"
       style="overflow:visible"
       inkscape:isstock="true">
      <path
         id="path6051"
         style="fill:#979797;fill-opacity:0.62745098;fill-rule:evenodd;stroke:#803300;stroke-width:0.625;stroke-linejoin:round;stroke-opacity:1"
         d="M 8.7185878,4.0337352 -2.2072895,0.01601326 8.7185884,-4.0017078 c -1.7454984,2.3720609 -1.7354408,5.6174519 -6e-7,8.035443 z"
         transform="scale(-0.6,-0.6)"
         inkscape:connector-curvature="0" />
    </marker>
    <marker
       inkscape:stockid="Arrow2Mend"
       orient="auto"
       refY="0"
       refX="0"
       id="marker6019"
       style="overflow:visible"
       inkscape:isstock="true">
      <path
         id="path6021"
         style="fill:#979797;fill-opacity:0.62745098;fill-rule:evenodd;stroke:#803300;stroke-width:0.625;stroke-linejoin:round;stroke-opacity:1"
         d="M 8.7185878,4.0337352 -2.2072895,0.01601326 8.7185884,-4.0017078 c -1.7454984,2.3720609 -1.7354408,5.6174519 -6e-7,8.035443 z"
         transform="scale(-0.6,-0.6)"
         inkscape:connector-curvature="0" />
    </marker>
    <marker
       inkscape:stockid="Arrow2Mend"
       orient="auto"
       refY="0"
       refX="0"
       id="marker4478"
       style="overflow:visible"
       inkscape:isstock="true"
       inkscape:collect="always">
      <path
         id="path4480"
         style="fill:#000000;fill-opacity:1;fill-rule:evenodd;stroke:#000000;stroke-width:0.625;stroke-linejoin:round;stroke-opacity:1"
         d="M 8.7185878,4.0337352 -2.2072895,0.01601326 8.7185884,-4.0017078 c -1.7454984,2.3720609 -1.7354408,5.6174519 -6e-7,8.035443 z"
         transform="scale(-0.6,-0.6)"
         inkscape:connector-curvature="0" />
    </marker>
    <marker
       inkscape:isstock="true"
       style="overflow:visible"
       id="Arrow2Mend"
       refX="0"
       refY="0"
       orient="auto"
       inkscape:stockid="Arrow2Mend"
       inkscape:collect="always">
      <path
         transform="scale(-0.6,-0.6)"
         d="M 8.7185878,4.0337352 -2.2072895,0.01601326 8.7185884,-4.0017078 c -1.7454984,2.3720609 -1.7354408,5.6174519 -6e-7,8.035443 z"
         style="fill:#000000;fill-opacity:1;fill-rule:evenodd;stroke:#000000;stroke-width:0.625;stroke-linejoin:round;stroke-opacity:1"
         id="path4185"
         inkscape:connector-curvature="0" />
    </marker>
    <marker
       inkscape:isstock="true"
       style="overflow:visible"
       id="Arrow2Mend-4"
       refX="0"
       refY="0"
       orient="auto"
       inkscape:stockid="Arrow2Mend">
      <path
         transform="scale(-0.6,-0.6)"
         d="M 8.7185878,4.0337352 -2.2072895,0.01601326 8.7185884,-4.0017078 c -1.7454984,2.3720609 -1.7354408,5.6174519 -6e-7,8.035443 z"
         style="fill:#000000;fill-opacity:1;fill-rule:evenodd;stroke:#000000;stroke-width:0.625;stroke-linejoin:round;stroke-opacity:1"
         id="path4185-1"
         inkscape:connector-curvature="0" />
    </marker>
    <marker
       inkscape:collect="always"
       inkscape:isstock="true"
       style="overflow:visible"
       id="Arrow2Mend-5"
       refX="0"
       refY="0"
       orient="auto"
       inkscape:stockid="Arrow2Mend">
      <path
         transform="scale(-0.6,-0.6)"
         d="M 8.7185878,4.0337352 -2.2072895,0.01601326 8.7185884,-4.0017078 c -1.7454984,2.3720609 -1.7354408,5.6174519 -6e-7,8.035443 z"
         style="fill:#000000;fill-opacity:1;fill-rule:evenodd;stroke:#000000;stroke-width:0.625;stroke-linejoin:round;stroke-opacity:1"
         id="path4185-8"
         inkscape:connector-curvature="0" />
    </marker>
    <marker
       inkscape:stockid="Arrow2Mend"
       orient="auto"
       refY="0"
       refX="0"
       id="marker4478-1"
       style="overflow:visible"
       inkscape:isstock="true">
      <path
         id="path4480-5"
         style="fill:#000000;fill-opacity:1;fill-rule:evenodd;stroke:#000000;stroke-width:0.625;stroke-linejoin:round;stroke-opacity:1"
         d="M 8.7185878,4.0337352 -2.2072895,0.01601326 8.7185884,-4.0017078 c -1.7454984,2.3720609 -1.7354408,5.6174519 -6e-7,8.035443 z"
         transform="scale(-0.6,-0.6)"
         inkscape:connector-curvature="0" />
    </marker>
    <defs
       id="defs5410">
      <g
         id="g5412">
        <symbol
           style="overflow:visible"
           overflow="visible"
           id="textext-bffc25f9-0">
          <path
             inkscape:connector-curvature="0"
             style="stroke:none"
             d=""
             id="path5415" />
        </symbol>
        <symbol
           style="overflow:visible"
           overflow="visible"
           id="textext-bffc25f9-1">
          <path
             inkscape:connector-curvature="0"
             style="stroke:none"
             d="m 3.3125,-0.75 c 0.046875,0.390625 0.3125,0.8125 0.78125,0.8125 0.21875,0 0.828125,-0.140625 0.828125,-0.953125 l 0,-0.5625 -0.25,0 0,0.5625 c 0,0.578125 -0.25,0.640625 -0.359375,0.640625 -0.328125,0 -0.375,-0.453125 -0.375,-0.5 l 0,-1.984375 c 0,-0.421875 0,-0.8125 -0.359375,-1.1875 C 3.1875,-4.3125 2.6875,-4.46875 2.21875,-4.46875 c -0.828125,0 -1.515625,0.46875 -1.515625,1.125 0,0.296875 0.203125,0.46875 0.46875,0.46875 0.28125,0 0.453125,-0.203125 0.453125,-0.453125 0,-0.125 -0.046875,-0.453125 -0.515625,-0.453125 C 1.390625,-4.140625 1.875,-4.25 2.1875,-4.25 c 0.5,0 1.0625,0.390625 1.0625,1.28125 l 0,0.359375 c -0.515625,0.03125 -1.203125,0.0625 -1.828125,0.359375 -0.75,0.34375 -1,0.859375 -1,1.296875 0,0.8125 0.96875,1.0625 1.59375,1.0625 0.65625,0 1.109375,-0.40625 1.296875,-0.859375 z M 3.25,-2.390625 l 0,1 c 0,0.9375 -0.71875,1.28125 -1.171875,1.28125 -0.484375,0 -0.890625,-0.34375 -0.890625,-0.84375 0,-0.546875 0.421875,-1.375 2.0625,-1.4375 z m 0,0"
             id="path5418" />
        </symbol>
        <symbol
           style="overflow:visible"
           overflow="visible"
           id="textext-bffc25f9-2">
          <path
             inkscape:connector-curvature="0"
             style="stroke:none"
             d="m 2.875,-2.5 c 0,-0.765625 -0.109375,-1.96875 -0.65625,-3.109375 -0.59375,-1.21875 -1.453125,-1.875 -1.546875,-1.875 -0.0625,0 -0.109375,0.046875 -0.109375,0.109375 0,0.03125 0,0.046875 0.1875,0.234375 0.984375,0.984375 1.546875,2.5625 1.546875,4.640625 0,1.71875 -0.359375,3.46875 -1.59375,4.71875 C 0.5625,2.34375 0.5625,2.359375 0.5625,2.390625 0.5625,2.453125 0.609375,2.5 0.671875,2.5 0.765625,2.5 1.671875,1.8125 2.25,0.546875 2.765625,-0.546875 2.875,-1.65625 2.875,-2.5 Z m 0,0"
             id="path5421" />
        </symbol>
        <symbol
           style="overflow:visible"
           overflow="visible"
           id="textext-bffc25f9-3">
          <path
             inkscape:connector-curvature="0"
             style="stroke:none"
             d="m 1.71875,-3.765625 0,-3.15625 -1.4375,0.109375 0,0.3125 c 0.703125,0 0.78125,0.0625 0.78125,0.5625 l 0,5.9375 0.25,0 c 0,-0.015625 0.078125,-0.15625 0.359375,-0.625 0.140625,0.234375 0.5625,0.734375 1.296875,0.734375 1.1875,0 2.21875,-0.984375 2.21875,-2.265625 0,-1.265625 -0.96875,-2.25 -2.109375,-2.25 -0.78125,0 -1.203125,0.46875 -1.359375,0.640625 z m 0.03125,2.625 0,-2.046875 c 0,-0.1875 0,-0.203125 0.109375,-0.359375 C 2.25,-4.109375 2.796875,-4.1875 3.03125,-4.1875 c 0.453125,0 0.8125,0.265625 1.046875,0.640625 0.265625,0.40625 0.28125,0.96875 0.28125,1.390625 0,0.359375 -0.015625,0.953125 -0.296875,1.40625 -0.21875,0.3125 -0.59375,0.640625 -1.125,0.640625 -0.453125,0 -0.8125,-0.234375 -1.046875,-0.609375 C 1.75,-0.921875 1.75,-0.953125 1.75,-1.140625 Z m 0,0"
             id="path5424" />
        </symbol>
        <symbol
           style="overflow:visible"
           overflow="visible"
           id="textext-bffc25f9-4">
          <path
             inkscape:connector-curvature="0"
             style="stroke:none"
             d="m 1.171875,-2.171875 c 0,-1.625 0.8125,-2.046875 1.34375,-2.046875 0.09375,0 0.71875,0.015625 1.0625,0.375 -0.40625,0.03125 -0.46875,0.328125 -0.46875,0.453125 0,0.265625 0.1875,0.453125 0.453125,0.453125 0.265625,0 0.46875,-0.15625 0.46875,-0.46875 0,-0.671875 -0.765625,-1.0625 -1.53125,-1.0625 -1.25,0 -2.15625,1.078125 -2.15625,2.3125 0,1.28125 0.984375,2.265625 2.140625,2.265625 1.328125,0 1.65625,-1.203125 1.65625,-1.296875 0,-0.09375 -0.109375,-0.09375 -0.140625,-0.09375 -0.078125,0 -0.109375,0.03125 -0.125,0.09375 -0.28125,0.921875 -0.9375,1.046875 -1.296875,1.046875 -0.53125,0 -1.40625,-0.421875 -1.40625,-2.03125 z m 0,0"
             id="path5427" />
        </symbol>
        <symbol
           style="overflow:visible"
           overflow="visible"
           id="textext-bffc25f9-5">
          <path
             inkscape:connector-curvature="0"
             style="stroke:none"
             d="m 6.84375,-3.265625 c 0.15625,0 0.34375,0 0.34375,-0.1875 C 7.1875,-3.65625 7,-3.65625 6.859375,-3.65625 l -5.96875,0 c -0.140625,0 -0.328125,0 -0.328125,0.203125 0,0.1875 0.1875,0.1875 0.328125,0.1875 z m 0.015625,1.9375 c 0.140625,0 0.328125,0 0.328125,-0.203125 0,-0.1875 -0.1875,-0.1875 -0.34375,-0.1875 l -5.953125,0 c -0.140625,0 -0.328125,0 -0.328125,0.1875 0,0.203125 0.1875,0.203125 0.328125,0.203125 z m 0,0"
             id="path5430" />
        </symbol>
        <symbol
           style="overflow:visible"
           overflow="visible"
           id="textext-bffc25f9-6">
          <path
             inkscape:connector-curvature="0"
             style="stroke:none"
             d="m 4.578125,-3.1875 c 0,-0.796875 -0.046875,-1.59375 -0.390625,-2.328125 -0.453125,-0.96875 -1.28125,-1.125 -1.6875,-1.125 -0.609375,0 -1.328125,0.265625 -1.75,1.1875 -0.3125,0.6875 -0.359375,1.46875 -0.359375,2.265625 0,0.75 0.03125,1.640625 0.453125,2.40625 0.421875,0.796875 1.15625,1 1.640625,1 0.53125,0 1.296875,-0.203125 1.734375,-1.15625 0.3125,-0.6875 0.359375,-1.46875 0.359375,-2.25 z M 2.484375,0 C 2.09375,0 1.5,-0.25 1.328125,-1.203125 1.21875,-1.796875 1.21875,-2.71875 1.21875,-3.3125 c 0,-0.640625 0,-1.296875 0.078125,-1.828125 0.1875,-1.1875 0.9375,-1.28125 1.1875,-1.28125 0.328125,0 0.984375,0.1875 1.171875,1.171875 0.109375,0.5625 0.109375,1.3125 0.109375,1.9375 0,0.75 0,1.421875 -0.109375,2.0625 C 3.5,-0.296875 2.9375,0 2.484375,0 Z m 0,0"
             id="path5433" />
        </symbol>
        <symbol
           style="overflow:visible"
           overflow="visible"
           id="textext-bffc25f9-7">
          <path
             inkscape:connector-curvature="0"
             style="stroke:none"
             d=""
             id="path5436" />
        </symbol>
        <symbol
           style="overflow:visible"
           overflow="visible"
           id="textext-bffc25f9-8">
          <path
             inkscape:connector-curvature="0"
             style="stroke:none"
             d="M 3.328125,-3.015625 C 3.390625,-3.265625 3.625,-4.1875 4.3125,-4.1875 c 0.046875,0 0.296875,0 0.5,0.125 C 4.53125,-4 4.34375,-3.765625 4.34375,-3.515625 c 0,0.15625 0.109375,0.34375 0.375,0.34375 0.21875,0 0.53125,-0.171875 0.53125,-0.578125 0,-0.515625 -0.578125,-0.65625 -0.921875,-0.65625 -0.578125,0 -0.921875,0.53125 -1.046875,0.75 -0.25,-0.65625 -0.78125,-0.75 -1.078125,-0.75 -1.03125,0 -1.609375,1.28125 -1.609375,1.53125 0,0.109375 0.109375,0.109375 0.125,0.109375 0.078125,0 0.109375,-0.03125 0.125,-0.109375 0.34375,-1.0625 1,-1.3125 1.34375,-1.3125 0.1875,0 0.53125,0.09375 0.53125,0.671875 0,0.3125 -0.171875,0.96875 -0.53125,2.375 -0.15625,0.609375 -0.515625,1.03125 -0.953125,1.03125 -0.0625,0 -0.28125,0 -0.5,-0.125 0.25,-0.0625 0.46875,-0.265625 0.46875,-0.546875 0,-0.265625 -0.21875,-0.34375 -0.359375,-0.34375 -0.3125,0 -0.546875,0.25 -0.546875,0.578125 0,0.453125 0.484375,0.65625 0.921875,0.65625 0.671875,0 1.03125,-0.703125 1.046875,-0.75 0.125,0.359375 0.484375,0.75 1.078125,0.75 1.03125,0 1.59375,-1.28125 1.59375,-1.53125 0,-0.109375 -0.078125,-0.109375 -0.109375,-0.109375 -0.09375,0 -0.109375,0.046875 -0.140625,0.109375 -0.328125,1.078125 -1,1.3125 -1.3125,1.3125 -0.390625,0 -0.546875,-0.3125 -0.546875,-0.65625 0,-0.21875 0.046875,-0.4375 0.15625,-0.875 z m 0,0"
             id="path5439" />
        </symbol>
        <symbol
           style="overflow:visible"
           overflow="visible"
           id="textext-bffc25f9-9">
          <path
             inkscape:connector-curvature="0"
             style="stroke:none"
             d="m 1.328125,-0.828125 c 0.53125,-0.578125 0.828125,-0.828125 1.1875,-1.140625 0,0 0.609375,-0.53125 0.96875,-0.890625 C 4.4375,-3.78125 4.65625,-4.265625 4.65625,-4.3125 c 0,-0.09375 -0.09375,-0.09375 -0.109375,-0.09375 -0.078125,0 -0.09375,0.015625 -0.15625,0.109375 -0.296875,0.484375 -0.5,0.640625 -0.734375,0.640625 -0.25,0 -0.359375,-0.15625 -0.515625,-0.328125 -0.1875,-0.21875 -0.359375,-0.421875 -0.6875,-0.421875 -0.75,0 -1.203125,0.921875 -1.203125,1.140625 0,0.046875 0.03125,0.109375 0.109375,0.109375 0.09375,0 0.109375,-0.046875 0.140625,-0.109375 0.1875,-0.46875 0.765625,-0.46875 0.84375,-0.46875 0.203125,0 0.390625,0.0625 0.625,0.140625 0.40625,0.15625 0.515625,0.15625 0.765625,0.15625 -0.359375,0.421875 -1.1875,1.140625 -1.375,1.296875 l -0.90625,0.84375 C 0.78125,-0.625 0.421875,-0.0625 0.421875,0.015625 c 0,0.09375 0.109375,0.09375 0.125,0.09375 0.078125,0 0.09375,-0.015625 0.15625,-0.125 0.234375,-0.359375 0.53125,-0.625 0.859375,-0.625 0.21875,0 0.328125,0.09375 0.578125,0.375 0.15625,0.21875 0.34375,0.375 0.625,0.375 1,0 1.578125,-1.265625 1.578125,-1.53125 0,-0.046875 -0.046875,-0.109375 -0.125,-0.109375 -0.09375,0 -0.109375,0.0625 -0.140625,0.140625 C 3.84375,-0.75 3.203125,-0.5625 2.875,-0.5625 c -0.1875,0 -0.375,-0.0625 -0.578125,-0.125 -0.34375,-0.125 -0.5,-0.171875 -0.703125,-0.171875 -0.015625,0 -0.171875,0 -0.265625,0.03125 z m 0,0"
             id="path5442" />
        </symbol>
        <symbol
           style="overflow:visible"
           overflow="visible"
           id="textext-bffc25f9-10">
          <path
             inkscape:connector-curvature="0"
             style="stroke:none"
             d="m 4.84375,-3.796875 c 0.046875,-0.140625 0.046875,-0.15625 0.046875,-0.234375 0,-0.171875 -0.140625,-0.265625 -0.296875,-0.265625 -0.09375,0 -0.25,0.0625 -0.34375,0.203125 -0.015625,0.0625 -0.109375,0.359375 -0.140625,0.546875 -0.078125,0.25 -0.140625,0.53125 -0.203125,0.796875 l -0.453125,1.796875 c -0.03125,0.140625 -0.46875,0.84375 -1.125,0.84375 -0.5,0 -0.609375,-0.4375 -0.609375,-0.8125 C 1.71875,-1.375 1.890625,-2 2.21875,-2.875 2.375,-3.28125 2.421875,-3.390625 2.421875,-3.59375 c 0,-0.4375 -0.3125,-0.8125 -0.8125,-0.8125 -0.953125,0 -1.3125,1.453125 -1.3125,1.53125 0,0.109375 0.09375,0.109375 0.109375,0.109375 0.109375,0 0.109375,-0.03125 0.15625,-0.1875 0.28125,-0.9375 0.671875,-1.234375 1.015625,-1.234375 0.078125,0 0.25,0 0.25,0.3125 0,0.25 -0.109375,0.515625 -0.171875,0.703125 -0.40625,1.0625 -0.578125,1.625 -0.578125,2.09375 0,0.890625 0.625,1.1875 1.21875,1.1875 0.390625,0 0.71875,-0.171875 1,-0.453125 -0.125,0.515625 -0.25,1.015625 -0.640625,1.546875 -0.265625,0.328125 -0.640625,0.625 -1.09375,0.625 -0.140625,0 -0.59375,-0.03125 -0.765625,-0.421875 0.15625,0 0.296875,0 0.421875,-0.125 C 1.328125,1.203125 1.421875,1.0625 1.421875,0.875 1.421875,0.5625 1.15625,0.53125 1.0625,0.53125 0.828125,0.53125 0.5,0.6875 0.5,1.171875 c 0,0.5 0.4375,0.875 1.0625,0.875 1.015625,0 2.046875,-0.90625 2.328125,-2.03125 z m 0,0"
             id="path5445" />
        </symbol>
      </g>
    </defs>
    <marker
       inkscape:stockid="Arrow2Mend"
       orient="auto"
       refY="0"
       refX="0"
       id="marker4478-1-3"
       style="overflow:visible"
       inkscape:isstock="true">
      <path
         id="path4480-5-7"
         style="fill:#000000;fill-opacity:1;fill-rule:evenodd;stroke:#000000;stroke-width:0.625;stroke-linejoin:round;stroke-opacity:1"
         d="M 8.7185878,4.0337352 -2.2072895,0.01601326 8.7185884,-4.0017078 c -1.7454984,2.3720609 -1.7354408,5.6174519 -6e-7,8.035443 z"
         transform="scale(-0.6,-0.6)"
         inkscape:connector-curvature="0" />
    </marker>
    <marker
       inkscape:stockid="Arrow2Mend"
       orient="auto"
       refY="0"
       refX="0"
       id="marker4478-1-3-5"
       style="overflow:visible"
       inkscape:isstock="true">
      <path
         id="path4480-5-7-6"
         style="fill:#000000;fill-opacity:1;fill-rule:evenodd;stroke:#000000;stroke-width:0.625;stroke-linejoin:round;stroke-opacity:1"
         d="M 8.7185878,4.0337352 -2.2072895,0.01601326 8.7185884,-4.0017078 c -1.7454984,2.3720609 -1.7354408,5.6174519 -6e-7,8.035443 z"
         transform="scale(-0.6,-0.6)"
         inkscape:connector-curvature="0" />
    </marker>
    <defs
       id="defs10635">
      <g
         id="g10637">
        <symbol
           style="overflow:visible"
           overflow="visible"
           id="textext-0f84b141-0">
          <path
             inkscape:connector-curvature="0"
             style="stroke:none"
             d=""
             id="path10640" />
        </symbol>
        <symbol
           style="overflow:visible"
           overflow="visible"
           id="textext-0f84b141-1">
          <path
             inkscape:connector-curvature="0"
             style="stroke:none"
             d="m 4.53125,-4.984375 c 0,-0.65625 -0.171875,-2.046875 -1.1875,-2.046875 -1.390625,0 -2.921875,2.8125 -2.921875,5.09375 0,0.9375 0.28125,2.046875 1.1875,2.046875 1.40625,0 2.921875,-2.859375 2.921875,-5.09375 z M 1.46875,-3.625 C 1.640625,-4.25 1.84375,-5.046875 2.25,-5.765625 2.515625,-6.25 2.875,-6.8125 3.328125,-6.8125 c 0.484375,0 0.546875,0.640625 0.546875,1.203125 0,0.5 -0.078125,1 -0.3125,1.984375 z m 2,0.328125 C 3.359375,-2.84375 3.15625,-2 2.765625,-1.28125 c -0.34375,0.6875 -0.71875,1.171875 -1.15625,1.171875 -0.328125,0 -0.53125,-0.296875 -0.53125,-1.21875 0,-0.421875 0.0625,-1 0.3125,-1.96875 z m 0,0"
             id="path10643" />
        </symbol>
        <symbol
           style="overflow:visible"
           overflow="visible"
           id="textext-0f84b141-2">
          <path
             inkscape:connector-curvature="0"
             style="stroke:none"
             d="M 1.6875,1.6875 C 1.65625,1.828125 1.640625,1.84375 1.640625,1.890625 c 0,0.21875 0.1875,0.28125 0.296875,0.28125 0.046875,0 0.265625,-0.03125 0.359375,-0.265625 C 2.328125,1.828125 2.375,1.5 2.65625,0.09375 c 0.078125,0 0.15625,0.015625 0.328125,0.015625 1.65625,0 3.1875,-1.5625 3.1875,-3.140625 0,-0.78125 -0.390625,-1.375 -1.140625,-1.375 -1.4375,0 -2.046875,1.9375 -2.640625,3.875 C 1.3125,-0.734375 0.75,-1.28125 0.75,-2 c 0,-0.28125 0.234375,-1.375 0.828125,-2.0625 0.09375,-0.09375 0.09375,-0.109375 0.09375,-0.140625 0,-0.03125 -0.03125,-0.09375 -0.125,-0.09375 -0.28125,0 -1.046875,1.453125 -1.046875,2.40625 0,0.9375 0.65625,1.65625 1.71875,1.90625 z m 1.390625,-2.15625 c -0.09375,0 -0.109375,0 -0.1875,-0.015625 -0.125,0 -0.125,0 -0.125,-0.03125 0,-0.015625 0.171875,-0.9375 0.1875,-1.078125 0.3125,-1.28125 1.09375,-2.234375 1.984375,-2.234375 0.6875,0 0.953125,0.53125 0.953125,1.015625 0,1.125 -1.28125,2.34375 -2.8125,2.34375 z m 0,0"
             id="path10646" />
        </symbol>
      </g>
    </defs>
  </defs>
  <metadata
     id="metadata7">
    <rdf:RDF>
      <cc:Work
         rdf:about="">
        <dc:format>image/svg+xml</dc:format>
        <dc:type
           rdf:resource="http://purl.org/dc/dcmitype/StillImage" />
        <dc:title></dc:title>
      </cc:Work>
    </rdf:RDF>
  </metadata>
  <g
     id="layer1"
     inkscape:groupmode="layer"
     inkscape:label="Layer 1"
     transform="translate(-150.85114,-247.774)">
    <path
       style="color:#000000;clip-rule:nonzero;display:inline;overflow:visible;visibility:visible;opacity:1;isolation:auto;mix-blend-mode:normal;color-interpolation:sRGB;color-interpolation-filters:linearRGB;solid-color:#000000;solid-opacity:1;fill:none;fill-opacity:1;fill-rule:evenodd;stroke:#000000;stroke-width:0.5;stroke-linecap:butt;stroke-linejoin:miter;stroke-miterlimit:4;stroke-dasharray:none;stroke-dashoffset:0;stroke-opacity:1;marker:none;color-rendering:auto;image-rendering:auto;shape-rendering:auto;text-rendering:auto;enable-background:accumulate"
       id="path8520"
       sodipodi:type="arc"
       sodipodi:cx="230.22746"
       sodipodi:cy="581.69452"
       sodipodi:rx="23.496227"
       sodipodi:ry="23.496227"
       sodipodi:start="5.9532793"
       sodipodi:end="6.2829235"
       sodipodi:open="true"
       d="m 252.4566,574.08282 a 23.496227,23.496227 0 0 1 1.26709,7.60555" />
    <path
       d="m 254.11223,573.5159 a 25.246227,25.246227 0 0 1 1.36146,8.17201"
       sodipodi:open="true"
       sodipodi:end="6.2829235"
       sodipodi:start="5.9532793"
       sodipodi:ry="25.246227"
       sodipodi:rx="25.246227"
       sodipodi:cy="581.69452"
       sodipodi:cx="230.22746"
       sodipodi:type="arc"
       id="path9920"
       style="color:#000000;clip-rule:nonzero;display:inline;overflow:visible;visibility:visible;opacity:1;isolation:auto;mix-blend-mode:normal;color-interpolation:sRGB;color-interpolation-filters:linearRGB;solid-color:#000000;solid-opacity:1;fill:none;fill-opacity:1;fill-rule:evenodd;stroke:#000000;stroke-width:0.5;stroke-linecap:butt;stroke-linejoin:miter;stroke-miterlimit:4;stroke-dasharray:none;stroke-dashoffset:0;stroke-opacity:1;marker:none;color-rendering:auto;image-rendering:auto;shape-rendering:auto;text-rendering:auto;enable-background:accumulate" />
    <path
       style="color:#000000;clip-rule:nonzero;display:inline;overflow:visible;visibility:visible;opacity:1;isolation:auto;mix-blend-mode:normal;color-interpolation:sRGB;color-interpolation-filters:linearRGB;solid-color:#000000;solid-opacity:1;fill:none;fill-opacity:1;fill-rule:evenodd;stroke:#000000;stroke-width:0.5;stroke-linecap:butt;stroke-linejoin:miter;stroke-miterlimit:4;stroke-dasharray:none;stroke-dashoffset:0;stroke-opacity:1;marker:none;color-rendering:auto;image-rendering:auto;shape-rendering:auto;text-rendering:auto;enable-background:accumulate"
       id="path7027-9"
       sodipodi:type="arc"
       sodipodi:cx="374.74387"
       sodipodi:cy="581.65546"
       sodipodi:rx="42.653427"
       sodipodi:ry="42.653427"
       sodipodi:start="5.94854"
       sodipodi:end="6.2829179"
       sodipodi:open="true"
       d="m 415.03117,567.64661 a 42.653427,42.653427 0 0 1 2.36612,13.99744" />
    <path
       inkscape:connector-curvature="0"
       id="path4148"
       d="m 203.74016,317.12598 26.5748,-26.5748 26.5748,26.5748 -26.5748,26.57481 z"
       style="color:#000000;clip-rule:nonzero;display:inline;overflow:visible;visibility:visible;opacity:1;isolation:auto;mix-blend-mode:normal;color-interpolation:sRGB;color-interpolation-filters:linearRGB;solid-color:#000000;solid-opacity:1;fill:#ff6600;fill-opacity:1;fill-rule:evenodd;stroke:#803300;stroke-width:1px;stroke-linecap:butt;stroke-linejoin:miter;stroke-miterlimit:4;stroke-dasharray:none;stroke-dashoffset:0;stroke-opacity:1;color-rendering:auto;image-rendering:auto;shape-rendering:auto;text-rendering:auto;enable-background:accumulate" />
    <path
       inkscape:connector-curvature="0"
       id="path4144"
       d="m 177.16535,343.70079 106.29922,0"
       style="fill:none;fill-rule:evenodd;stroke:#000000;stroke-width:1px;stroke-linecap:butt;stroke-linejoin:miter;stroke-opacity:1" />
    <path
       inkscape:connector-curvature="0"
       id="path4146"
       d="m 265.74803,308.26772 -35.43307,35.43307 -35.43307,-35.43307"
       style="color:#000000;clip-rule:nonzero;display:inline;overflow:visible;visibility:visible;opacity:1;isolation:auto;mix-blend-mode:normal;color-interpolation:sRGB;color-interpolation-filters:linearRGB;solid-color:#000000;solid-opacity:1;fill:none;fill-opacity:0.82248523;fill-rule:evenodd;stroke:#3d3d3d;stroke-width:1.5;stroke-linecap:butt;stroke-linejoin:miter;stroke-miterlimit:4;stroke-dasharray:none;stroke-dashoffset:0;stroke-opacity:1;color-rendering:auto;image-rendering:auto;shape-rendering:auto;text-rendering:auto;enable-background:accumulate" />
    <path
       inkscape:connector-curvature="0"
       id="path4150"
       d="m 186.02362,317.12598 88.58268,0"
       style="color:#000000;clip-rule:nonzero;display:inline;overflow:visible;visibility:visible;opacity:1;isolation:auto;mix-blend-mode:normal;color-interpolation:sRGB;color-interpolation-filters:linearRGB;solid-color:#000000;solid-opacity:1;fill:none;fill-opacity:1;fill-rule:evenodd;stroke:#000000;stroke-width:0.5;stroke-linecap:butt;stroke-linejoin:miter;stroke-miterlimit:4;stroke-dasharray:none;stroke-dashoffset:0;stroke-opacity:1;marker-end:url(#marker4478);color-rendering:auto;image-rendering:auto;shape-rendering:auto;text-rendering:auto;enable-background:accumulate" />
    <path
       inkscape:connector-curvature="0"
       id="path4152"
       d="m 230.31496,354.33071 0,-81.49606"
       style="fill:none;fill-rule:evenodd;stroke:#000000;stroke-width:0.5;stroke-linecap:butt;stroke-linejoin:miter;stroke-miterlimit:4;stroke-dasharray:none;stroke-opacity:1;marker-end:url(#Arrow2Mend)" />
    <g
       id="g5674"
       transform="translate(-206.75945,-201.52543)">
      <g
         transform="matrix(1.6,0,0,1.6,0,299.81328)"
         style="fill:#000000;fill-opacity:1"
         id="g5448">
        <use
           height="100%"
           width="100%"
           xlink:href="#textext-bffc25f9-1"
           x="223.43201"
           y="134.765"
           id="use5450" />
        <use
           height="100%"
           width="100%"
           xlink:href="#textext-bffc25f9-2"
           x="228.4133"
           y="134.765"
           id="use5452" />
      </g>
    </g>
    <g
       id="g5679"
       transform="translate(-226.56736,-76.702056)">
      <g
         transform="matrix(1.6,0,0,1.6,0,299.81328)"
         style="fill:#000000;fill-opacity:1"
         id="g5454">
        <use
           height="100%"
           width="100%"
           xlink:href="#textext-bffc25f9-3"
           x="235.6053"
           y="134.765"
           id="use5456" />
        <use
           height="100%"
           width="100%"
           xlink:href="#textext-bffc25f9-2"
           x="241.14052"
           y="134.765"
           id="use5458" />
      </g>
    </g>
    <g
       id="g5684"
       transform="translate(-246.11059,51.87868)">
      <g
         transform="matrix(1.6,0,0,1.6,0,299.81328)"
         style="fill:#000000;fill-opacity:1"
         id="g5460">
        <use
           height="100%"
           width="100%"
           xlink:href="#textext-bffc25f9-4"
           x="248.34248"
           y="134.765"
           id="use5462" />
        <use
           height="100%"
           width="100%"
           xlink:href="#textext-bffc25f9-2"
           x="252.76987"
           y="134.765"
           id="use5464" />
      </g>
    </g>
    <g
       id="g5697"
       transform="matrix(0.548916,0,0,0.548916,-30.970091,-29.325536)">
      <g
         transform="matrix(1.6,0,0,1.6,0,299.81328)"
         style="fill:#000000;fill-opacity:1"
         id="g5478">
        <use
           height="100%"
           width="100%"
           xlink:href="#textext-bffc25f9-9"
           x="287.241"
           y="134.765"
           id="use5480" />
      </g>
      <g
         transform="matrix(1.6,0,0,1.6,0,299.81328)"
         style="fill:#000000;fill-opacity:1"
         id="g5482">
        <use
           height="100%"
           width="100%"
           xlink:href="#textext-bffc25f9-5"
           x="295.07999"
           y="134.765"
           id="use5484" />
      </g>
      <g
         transform="matrix(1.6,0,0,1.6,0,299.81328)"
         style="fill:#000000;fill-opacity:1"
         id="g5486">
        <use
           height="100%"
           width="100%"
           xlink:href="#textext-bffc25f9-6"
           x="305.59851"
           y="134.765"
           id="use5488" />
      </g>
    </g>
    <g
       id="g5490"
       style="fill:#000000;fill-opacity:1"
       transform="matrix(0.8782656,0,0,0.8782656,-1.2946764,194.21337)">
      <use
         id="use5492"
         y="134.765"
         x="313.89801"
         xlink:href="#textext-bffc25f9-8"
         width="100%"
         height="100%" />
    </g>
    <g
       id="g5494"
       style="fill:#000000;fill-opacity:1"
       transform="matrix(0.8782656,0,0,0.8782656,-59.961469,150.44956)">
      <use
         id="use5496"
         y="134.765"
         x="322.90918"
         xlink:href="#textext-bffc25f9-10"
         width="100%"
         height="100%" />
    </g>
    <path
       style="color:#000000;clip-rule:nonzero;display:inline;overflow:visible;visibility:visible;opacity:1;isolation:auto;mix-blend-mode:normal;color-interpolation:sRGB;color-interpolation-filters:linearRGB;solid-color:#000000;solid-opacity:1;fill:#ff6600;fill-opacity:1;fill-rule:evenodd;stroke:#803300;stroke-width:1px;stroke-linecap:butt;stroke-linejoin:miter;stroke-miterlimit:4;stroke-dasharray:none;stroke-dashoffset:0;stroke-opacity:1;color-rendering:auto;image-rendering:auto;shape-rendering:auto;text-rendering:auto;enable-background:accumulate"
       d="m 203.74016,317.12598 26.5748,-26.5748 26.5748,26.5748 -26.5748,26.57481 z"
       id="path5759"
       inkscape:connector-curvature="0" />
    <path
       style="fill:none;fill-rule:evenodd;stroke:#000000;stroke-width:1px;stroke-linecap:butt;stroke-linejoin:miter;stroke-opacity:1"
       d="m 177.16535,343.70079 106.29922,0"
       id="path5761"
       inkscape:connector-curvature="0" />
    <path
       style="color:#000000;clip-rule:nonzero;display:inline;overflow:visible;visibility:visible;opacity:1;isolation:auto;mix-blend-mode:normal;color-interpolation:sRGB;color-interpolation-filters:linearRGB;solid-color:#000000;solid-opacity:1;fill:none;fill-opacity:0.82248523;fill-rule:evenodd;stroke:#3d3d3d;stroke-width:1.5;stroke-linecap:butt;stroke-linejoin:miter;stroke-miterlimit:4;stroke-dasharray:none;stroke-dashoffset:0;stroke-opacity:1;color-rendering:auto;image-rendering:auto;shape-rendering:auto;text-rendering:auto;enable-background:accumulate"
       d="m 265.74803,308.26772 -35.43307,35.43307 -35.43307,-35.43307"
       id="path5763"
       inkscape:connector-curvature="0" />
    <path
       style="color:#000000;clip-rule:nonzero;display:inline;overflow:visible;visibility:visible;opacity:1;isolation:auto;mix-blend-mode:normal;color-interpolation:sRGB;color-interpolation-filters:linearRGB;solid-color:#000000;solid-opacity:1;fill:none;fill-opacity:1;fill-rule:evenodd;stroke:#000000;stroke-width:0.5;stroke-linecap:butt;stroke-linejoin:miter;stroke-miterlimit:4;stroke-dasharray:none;stroke-dashoffset:0;stroke-opacity:1;marker-end:url(#marker4478);color-rendering:auto;image-rendering:auto;shape-rendering:auto;text-rendering:auto;enable-background:accumulate"
       d="m 186.02362,317.12598 88.58268,0"
       id="path5765"
       inkscape:connector-curvature="0" />
    <path
       style="fill:none;fill-rule:evenodd;stroke:#000000;stroke-width:0.5;stroke-linecap:butt;stroke-linejoin:miter;stroke-miterlimit:4;stroke-dasharray:none;stroke-opacity:1;marker-end:url(#Arrow2Mend)"
       d="m 230.31496,354.33071 0,-81.49606"
       id="path5767"
       inkscape:connector-curvature="0" />
    <g
       transform="matrix(0.548916,0,0,0.548916,-30.970091,-29.325536)"
       id="g5797">
      <g
         id="g5799"
         style="fill:#000000;fill-opacity:1"
         transform="matrix(1.6,0,0,1.6,0,299.81328)">
        <use
           id="use5801"
           y="134.765"
           x="287.241"
           xlink:href="#textext-bffc25f9-9"
           width="100%"
           height="100%" />
      </g>
      <g
         id="g5803"
         style="fill:#000000;fill-opacity:1"
         transform="matrix(1.6,0,0,1.6,0,299.81328)">
        <use
           id="use5805"
           y="134.765"
           x="295.07999"
           xlink:href="#textext-bffc25f9-5"
           width="100%"
           height="100%" />
      </g>
      <g
         id="g5807"
         style="fill:#000000;fill-opacity:1"
         transform="matrix(1.6,0,0,1.6,0,299.81328)">
        <use
           id="use5809"
           y="134.765"
           x="305.59851"
           xlink:href="#textext-bffc25f9-6"
           width="100%"
           height="100%" />
      </g>
    </g>
    <g
       transform="matrix(0.8782656,0,0,0.8782656,-1.2946764,194.21337)"
       style="fill:#000000;fill-opacity:1"
       id="g5811">
      <use
         height="100%"
         width="100%"
         xlink:href="#textext-bffc25f9-8"
         x="313.89801"
         y="134.765"
         id="use5813" />
    </g>
    <g
       transform="matrix(0.8782656,0,0,0.8782656,-59.961469,150.44956)"
       style="fill:#000000;fill-opacity:1"
       id="g5815">
      <use
         height="100%"
         width="100%"
         xlink:href="#textext-bffc25f9-10"
         x="322.90918"
         y="134.765"
         id="use5817" />
    </g>
    <g
       id="g4518"
       transform="translate(6.18377,0)">
      <path
         style="fill:#ff6600;fill-rule:evenodd;stroke:#803300;stroke-width:1px;stroke-linecap:butt;stroke-linejoin:miter;stroke-opacity:1"
         d="m 378.33071,343.70079 0,-53.14961 53.1496,0 0,53.14961 z"
         id="path4516"
         inkscape:connector-curvature="0" />
      <path
         style="color:#000000;clip-rule:nonzero;display:inline;overflow:visible;visibility:visible;opacity:1;isolation:auto;mix-blend-mode:normal;color-interpolation:sRGB;color-interpolation-filters:linearRGB;solid-color:#000000;solid-opacity:1;fill:#979797;fill-opacity:0.62745098;fill-rule:evenodd;stroke:#3d3d3d;stroke-width:1.5;stroke-linecap:butt;stroke-linejoin:miter;stroke-miterlimit:4;stroke-dasharray:none;stroke-dashoffset:0;stroke-opacity:1;color-rendering:auto;image-rendering:auto;shape-rendering:auto;text-rendering:auto;enable-background:accumulate"
         d="m 342.89764,343.70079 0,-35.43307 141.73228,0 0,35.43307 z"
         id="path4514"
         inkscape:connector-curvature="0" />
      <path
         style="fill:none;fill-rule:evenodd;stroke:#000000;stroke-width:0.5;stroke-linecap:butt;stroke-linejoin:miter;stroke-miterlimit:4;stroke-dasharray:1, 0.5;stroke-dashoffset:0;stroke-opacity:1"
         d="m 378.21223,317.12598 53.26808,0"
         id="path4518"
         inkscape:connector-curvature="0"
         sodipodi:nodetypes="cc" />
      <g
         id="g5169"
         transform="translate(-3.47835,91.936155)">
        <path
           inkscape:connector-curvature="0"
           id="path4152-9"
           d="m 408.38866,266.31582 0,-81.49606"
           style="fill:none;fill-rule:evenodd;stroke:#000000;stroke-width:0.5;stroke-linecap:butt;stroke-linejoin:miter;stroke-miterlimit:4;stroke-dasharray:none;stroke-opacity:1;marker-end:url(#Arrow2Mend-5)" />
        <path
           sodipodi:nodetypes="cc"
           inkscape:connector-curvature="0"
           id="path4150-1"
           d="m 482.30316,225.18503 -147.08268,0"
           style="color:#000000;clip-rule:nonzero;display:inline;overflow:visible;visibility:visible;opacity:1;isolation:auto;mix-blend-mode:normal;color-interpolation:sRGB;color-interpolation-filters:linearRGB;solid-color:#000000;solid-opacity:1;fill:none;fill-opacity:1;fill-rule:evenodd;stroke:#000000;stroke-width:0.5;stroke-linecap:butt;stroke-linejoin:miter;stroke-miterlimit:4;stroke-dasharray:none;stroke-dashoffset:0;stroke-opacity:1;marker-end:url(#marker4478-1);color-rendering:auto;image-rendering:auto;shape-rendering:auto;text-rendering:auto;enable-background:accumulate" />
      </g>
      <g
         transform="matrix(0.548916,0,0,0.548916,164.85686,-29.325536)"
         id="g5689">
        <g
           id="g5466"
           style="fill:#000000;fill-opacity:1"
           transform="matrix(1.6,0,0,1.6,0,299.81328)">
          <use
             id="use5468"
             y="134.765"
             x="259.96201"
             xlink:href="#textext-bffc25f9-8"
             width="100%"
             height="100%" />
        </g>
        <g
           id="g5470"
           style="fill:#000000;fill-opacity:1"
           transform="matrix(1.6,0,0,1.6,0,299.81328)">
          <use
             id="use5472"
             y="134.765"
             x="268.423"
             xlink:href="#textext-bffc25f9-5"
             width="100%"
             height="100%" />
        </g>
        <g
           id="g5474"
           style="fill:#000000;fill-opacity:1"
           transform="matrix(1.6,0,0,1.6,0,299.81328)">
          <use
             id="use5476"
             y="134.765"
             x="278.9415"
             xlink:href="#textext-bffc25f9-6"
             width="100%"
             height="100%" />
        </g>
      </g>
      <g
         transform="matrix(0.8782656,0,0,0.8782656,34.749209,194.21337)"
         style="fill:#000000;fill-opacity:1"
         id="g5498">
        <use
           height="100%"
           width="100%"
           xlink:href="#textext-bffc25f9-9"
           x="331.48001"
           y="134.765"
           id="use5500" />
      </g>
      <g
         transform="matrix(0.8782656,0,0,0.8782656,113.94923,155.10004)"
         style="fill:#000000;fill-opacity:1"
         id="g5494-2">
        <use
           height="100%"
           width="100%"
           xlink:href="#textext-bffc25f9-10"
           x="322.90918"
           y="134.765"
           id="use5496-5" />
      </g>
      <path
         inkscape:connector-curvature="0"
         id="path5769"
         d="m 325.1811,343.95079 177.16536,0"
         style="fill:none;fill-rule:evenodd;stroke:#000000;stroke-width:1;stroke-linecap:butt;stroke-linejoin:miter;stroke-miterlimit:4;stroke-dasharray:none;stroke-opacity:1" />
      <path
         inkscape:connector-curvature="0"
         id="path5771"
         d="m 378.33071,343.70079 0,-53.14961 53.1496,0 0,53.14961 z"
         style="fill:#ff6600;fill-rule:evenodd;stroke:#803300;stroke-width:1px;stroke-linecap:butt;stroke-linejoin:miter;stroke-opacity:1" />
      <path
         inkscape:connector-curvature="0"
         id="path5773"
         d="m 342.89764,343.70079 0,-35.43307 141.73228,0 0,35.43307 z"
         style="color:#000000;clip-rule:nonzero;display:inline;overflow:visible;visibility:visible;opacity:1;isolation:auto;mix-blend-mode:normal;color-interpolation:sRGB;color-interpolation-filters:linearRGB;solid-color:#000000;solid-opacity:1;fill:#979797;fill-opacity:0.62745098;fill-rule:evenodd;stroke:#3d3d3d;stroke-width:1.5;stroke-linecap:butt;stroke-linejoin:miter;stroke-miterlimit:4;stroke-dasharray:none;stroke-dashoffset:0;stroke-opacity:1;color-rendering:auto;image-rendering:auto;shape-rendering:auto;text-rendering:auto;enable-background:accumulate" />
      <path
         sodipodi:nodetypes="cc"
         inkscape:connector-curvature="0"
         id="path5775"
         d="m 378.21223,317.12598 53.26808,0"
         style="fill:none;fill-rule:evenodd;stroke:#000000;stroke-width:0.5;stroke-linecap:butt;stroke-linejoin:miter;stroke-miterlimit:4;stroke-dasharray:1, 0.5;stroke-dashoffset:0;stroke-opacity:1" />
      <g
         transform="translate(-3.47835,91.936155)"
         id="g5777">
        <path
           style="fill:none;fill-rule:evenodd;stroke:#000000;stroke-width:0.5;stroke-linecap:butt;stroke-linejoin:miter;stroke-miterlimit:4;stroke-dasharray:none;stroke-opacity:1;marker-end:url(#Arrow2Mend-5)"
           d="m 408.38866,266.31582 0,-81.49606"
           id="path5779"
           inkscape:connector-curvature="0" />
        <path
           style="color:#000000;clip-rule:nonzero;display:inline;overflow:visible;visibility:visible;opacity:1;isolation:auto;mix-blend-mode:normal;color-interpolation:sRGB;color-interpolation-filters:linearRGB;solid-color:#000000;solid-opacity:1;fill:none;fill-opacity:1;fill-rule:evenodd;stroke:#000000;stroke-width:0.5;stroke-linecap:butt;stroke-linejoin:miter;stroke-miterlimit:4;stroke-dasharray:none;stroke-dashoffset:0;stroke-opacity:1;marker-end:url(#marker4478-1);color-rendering:auto;image-rendering:auto;shape-rendering:auto;text-rendering:auto;enable-background:accumulate"
           d="m 482.30316,225.18503 -147.08268,0"
           id="path5781"
           inkscape:connector-curvature="0"
           sodipodi:nodetypes="cc" />
      </g>
      <g
         id="g5783"
         transform="matrix(0.548916,0,0,0.548916,164.85686,-29.325536)">
        <g
           transform="matrix(1.6,0,0,1.6,0,299.81328)"
           style="fill:#000000;fill-opacity:1"
           id="g5785">
          <use
             height="100%"
             width="100%"
             xlink:href="#textext-bffc25f9-8"
             x="259.96201"
             y="134.765"
             id="use5787" />
        </g>
        <g
           transform="matrix(1.6,0,0,1.6,0,299.81328)"
           style="fill:#000000;fill-opacity:1"
           id="g5789">
          <use
             height="100%"
             width="100%"
             xlink:href="#textext-bffc25f9-5"
             x="268.423"
             y="134.765"
             id="use5791" />
        </g>
        <g
           transform="matrix(1.6,0,0,1.6,0,299.81328)"
           style="fill:#000000;fill-opacity:1"
           id="g5793">
          <use
             height="100%"
             width="100%"
             xlink:href="#textext-bffc25f9-6"
             x="278.9415"
             y="134.765"
             id="use5795" />
        </g>
      </g>
      <g
         id="g5819"
         style="fill:#000000;fill-opacity:1"
         transform="matrix(0.8782656,0,0,0.8782656,34.749209,194.21337)">
        <use
           id="use5821"
           y="134.765"
           x="331.48001"
           xlink:href="#textext-bffc25f9-9"
           width="100%"
           height="100%" />
      </g>
      <g
         id="g5823"
         style="fill:#000000;fill-opacity:1"
         transform="matrix(0.8782656,0,0,0.8782656,113.94923,155.10004)">
        <use
           id="use5825"
           y="134.765"
           x="322.90918"
           xlink:href="#textext-bffc25f9-10"
           width="100%"
           height="100%" />
      </g>
    </g>
    <path
       style="color:#000000;clip-rule:nonzero;display:inline;overflow:visible;visibility:visible;opacity:1;isolation:auto;mix-blend-mode:normal;color-interpolation:sRGB;color-interpolation-filters:linearRGB;solid-color:#000000;solid-opacity:1;fill:#ff6600;fill-opacity:1;fill-rule:evenodd;stroke:#803300;stroke-width:1px;stroke-linecap:butt;stroke-linejoin:miter;stroke-miterlimit:4;stroke-dasharray:none;stroke-dashoffset:0;stroke-opacity:1;color-rendering:auto;image-rendering:auto;shape-rendering:auto;text-rendering:auto;enable-background:accumulate"
       d="m 203.74016,441.57677 26.5748,-26.5748 26.5748,26.5748 -26.5748,26.57481 z"
       id="path5907"
       inkscape:connector-curvature="0" />
    <path
       style="fill:none;fill-rule:evenodd;stroke:#000000;stroke-width:1px;stroke-linecap:butt;stroke-linejoin:miter;stroke-opacity:1"
       d="m 177.16535,468.15158 106.29922,0"
       id="path5909"
       inkscape:connector-curvature="0" />
    <path
       style="color:#000000;clip-rule:nonzero;display:inline;overflow:visible;visibility:visible;opacity:1;isolation:auto;mix-blend-mode:normal;color-interpolation:sRGB;color-interpolation-filters:linearRGB;solid-color:#000000;solid-opacity:1;fill:none;fill-opacity:0.82248523;fill-rule:evenodd;stroke:#3d3d3d;stroke-width:1.5;stroke-linecap:butt;stroke-linejoin:miter;stroke-miterlimit:4;stroke-dasharray:none;stroke-dashoffset:0;stroke-opacity:1;color-rendering:auto;image-rendering:auto;shape-rendering:auto;text-rendering:auto;enable-background:accumulate"
       d="m 265.74803,432.71851 -35.43307,35.43307 -35.43307,-35.43307"
       id="path5911"
       inkscape:connector-curvature="0" />
    <path
       style="color:#000000;clip-rule:nonzero;display:inline;overflow:visible;visibility:visible;opacity:1;isolation:auto;mix-blend-mode:normal;color-interpolation:sRGB;color-interpolation-filters:linearRGB;solid-color:#000000;solid-opacity:1;fill:none;fill-opacity:1;fill-rule:evenodd;stroke:#000000;stroke-width:0.5;stroke-linecap:butt;stroke-linejoin:miter;stroke-miterlimit:4;stroke-dasharray:none;stroke-dashoffset:0;stroke-opacity:1;marker-end:url(#marker4478);color-rendering:auto;image-rendering:auto;shape-rendering:auto;text-rendering:auto;enable-background:accumulate"
       d="m 186.02362,441.57677 88.58268,0"
       id="path5913"
       inkscape:connector-curvature="0" />
    <path
       style="fill:none;fill-rule:evenodd;stroke:#000000;stroke-width:0.5;stroke-linecap:butt;stroke-linejoin:miter;stroke-miterlimit:4;stroke-dasharray:none;stroke-opacity:1;marker-end:url(#Arrow2Mend)"
       d="m 230.31496,478.7815 0,-81.49606"
       id="path5915"
       inkscape:connector-curvature="0" />
    <path
       style="fill:#ff6600;fill-rule:evenodd;stroke:#803300;stroke-width:1px;stroke-linecap:butt;stroke-linejoin:miter;stroke-opacity:1"
       d="m 400.57226,456.52735 -17.46962,-50.19655 50.19655,-17.46961 17.46961,50.19654 z"
       id="path5917"
       inkscape:connector-curvature="0"
       inkscape:transform-center-x="-49.775468"
       inkscape:transform-center-y="-45.390049" />
    <path
       style="color:#000000;clip-rule:nonzero;display:inline;overflow:visible;visibility:visible;opacity:1;isolation:auto;mix-blend-mode:normal;color-interpolation:sRGB;color-interpolation-filters:linearRGB;solid-color:#000000;solid-opacity:1;fill:#979797;fill-opacity:0.62745098;fill-rule:evenodd;stroke:#3d3d3d;stroke-width:1.5;stroke-linecap:butt;stroke-linejoin:miter;stroke-miterlimit:4;stroke-dasharray:none;stroke-dashoffset:0;stroke-opacity:1;color-rendering:auto;image-rendering:auto;shape-rendering:auto;text-rendering:auto;enable-background:accumulate"
       d="m 367.1079,468.17376 -11.64641,-33.46436 133.85745,-46.58565 11.64641,33.46436 z"
       id="path5919"
       inkscape:connector-curvature="0"
       inkscape:transform-center-x="-61.053168"
       inkscape:transform-center-y="-39.935564" />
    <path
       style="fill:none;fill-rule:evenodd;stroke:#000000;stroke-width:0.5;stroke-linecap:butt;stroke-linejoin:miter;stroke-miterlimit:4;stroke-dasharray:1, 0.5;stroke-dashoffset:0;stroke-opacity:1"
       d="m 391.72555,431.46801 50.30844,-17.50856"
       id="path5921"
       inkscape:connector-curvature="0"
       sodipodi:nodetypes="cc"
       inkscape:transform-center-x="-49.719518"
       inkscape:transform-center-y="-45.370589" />
    <g
       id="g5923"
       transform="matrix(0.9444387,-0.32868758,0.32868758,0.9444387,-42.774907,344.24698)"
       inkscape:transform-center-x="-50.13085"
       inkscape:transform-center-y="-45.034669">
      <path
         inkscape:connector-curvature="0"
         id="path5925"
         d="m 408.38866,266.31582 0,-81.49606"
         style="fill:none;fill-rule:evenodd;stroke:#000000;stroke-width:0.5;stroke-linecap:butt;stroke-linejoin:miter;stroke-miterlimit:4;stroke-dasharray:none;stroke-opacity:1;marker-end:url(#Arrow2Mend-5)" />
      <path
         sodipodi:nodetypes="cc"
         inkscape:connector-curvature="0"
         id="path5927"
         d="m 482.30316,225.18503 -147.08268,0"
         style="color:#000000;clip-rule:nonzero;display:inline;overflow:visible;visibility:visible;opacity:1;isolation:auto;mix-blend-mode:normal;color-interpolation:sRGB;color-interpolation-filters:linearRGB;solid-color:#000000;solid-opacity:1;fill:none;fill-opacity:1;fill-rule:evenodd;stroke:#000000;stroke-width:0.5;stroke-linecap:butt;stroke-linejoin:miter;stroke-miterlimit:4;stroke-dasharray:none;stroke-dashoffset:0;stroke-opacity:1;marker-end:url(#marker4478-1);color-rendering:auto;image-rendering:auto;shape-rendering:auto;text-rendering:auto;enable-background:accumulate" />
    </g>
    <g
       transform="matrix(0.8782656,0,0,0.8782656,-1.2946764,318.66416)"
       style="fill:#000000;fill-opacity:1"
       id="g5929">
      <use
         height="100%"
         width="100%"
         xlink:href="#textext-bffc25f9-8"
         x="313.89801"
         y="134.765"
         id="use5931" />
    </g>
    <g
       transform="matrix(0.8782656,0,0,0.8782656,-59.961469,274.90035)"
       style="fill:#000000;fill-opacity:1"
       id="g5933">
      <use
         height="100%"
         width="100%"
         xlink:href="#textext-bffc25f9-10"
         x="322.90918"
         y="134.765"
         id="use5935" />
    </g>
    <g
       transform="matrix(0.82946803,-0.288675,0.288675,0.82946803,26.94593,428.27662)"
       style="fill:#000000;fill-opacity:1"
       id="g5937"
       inkscape:transform-center-x="24.71344"
       inkscape:transform-center-y="-26.230747">
      <use
         height="100%"
         width="100%"
         xlink:href="#textext-bffc25f9-9"
         x="331.48001"
         y="134.765"
         id="use5939" />
    </g>
    <g
       transform="matrix(0.82946803,-0.288675,0.288675,0.82946803,88.88943,365.30441)"
       style="fill:#000000;fill-opacity:1"
       id="g5941"
       inkscape:transform-center-x="-29.793933"
       inkscape:transform-center-y="-86.008712">
      <use
         height="100%"
         width="100%"
         xlink:href="#textext-bffc25f9-10"
         x="322.90918"
         y="134.765"
         id="use5943" />
    </g>
    <path
       inkscape:connector-curvature="0"
       id="path5945"
       d="m 203.74016,441.57677 26.5748,-26.5748 26.5748,26.5748 -26.5748,26.57481 z"
       style="color:#000000;clip-rule:nonzero;display:inline;overflow:visible;visibility:visible;opacity:1;isolation:auto;mix-blend-mode:normal;color-interpolation:sRGB;color-interpolation-filters:linearRGB;solid-color:#000000;solid-opacity:1;fill:#ff6600;fill-opacity:1;fill-rule:evenodd;stroke:#803300;stroke-width:1px;stroke-linecap:butt;stroke-linejoin:miter;stroke-miterlimit:4;stroke-dasharray:none;stroke-dashoffset:0;stroke-opacity:1;color-rendering:auto;image-rendering:auto;shape-rendering:auto;text-rendering:auto;enable-background:accumulate" />
    <path
       inkscape:connector-curvature="0"
       id="path5949"
       d="m 265.74803,432.71851 -35.43307,35.43307 -35.43307,-35.43307"
       style="color:#000000;clip-rule:nonzero;display:inline;overflow:visible;visibility:visible;opacity:1;isolation:auto;mix-blend-mode:normal;color-interpolation:sRGB;color-interpolation-filters:linearRGB;solid-color:#000000;solid-opacity:1;fill:none;fill-opacity:0.82248523;fill-rule:evenodd;stroke:#3d3d3d;stroke-width:1.5;stroke-linecap:butt;stroke-linejoin:miter;stroke-miterlimit:4;stroke-dasharray:none;stroke-dashoffset:0;stroke-opacity:1;color-rendering:auto;image-rendering:auto;shape-rendering:auto;text-rendering:auto;enable-background:accumulate" />
    <path
       inkscape:connector-curvature="0"
       id="path5951"
       d="m 186.02362,441.57677 88.58268,0"
       style="color:#000000;clip-rule:nonzero;display:inline;overflow:visible;visibility:visible;opacity:1;isolation:auto;mix-blend-mode:normal;color-interpolation:sRGB;color-interpolation-filters:linearRGB;solid-color:#000000;solid-opacity:1;fill:none;fill-opacity:1;fill-rule:evenodd;stroke:#000000;stroke-width:0.5;stroke-linecap:butt;stroke-linejoin:miter;stroke-miterlimit:4;stroke-dasharray:none;stroke-dashoffset:0;stroke-opacity:1;marker-end:url(#marker4478);color-rendering:auto;image-rendering:auto;shape-rendering:auto;text-rendering:auto;enable-background:accumulate" />
    <path
       inkscape:connector-curvature="0"
       id="path5953"
       d="m 230.31496,478.7815 0,-81.49606"
       style="fill:none;fill-rule:evenodd;stroke:#000000;stroke-width:0.5;stroke-linecap:butt;stroke-linejoin:miter;stroke-miterlimit:4;stroke-dasharray:none;stroke-opacity:1;marker-end:url(#Arrow2Mend)" />
    <path
       inkscape:connector-curvature="0"
       id="path5955"
       d="m 349.36487,468.40158 177.16536,0"
       style="fill:none;fill-rule:evenodd;stroke:#000000;stroke-width:1;stroke-linecap:butt;stroke-linejoin:miter;stroke-miterlimit:4;stroke-dasharray:none;stroke-opacity:1" />
    <path
       inkscape:connector-curvature="0"
       id="path5957"
       d="m 400.57226,456.52735 -17.46962,-50.19655 50.19655,-17.46961 17.46961,50.19654 z"
       style="fill:#ff6600;fill-rule:evenodd;stroke:#803300;stroke-width:1px;stroke-linecap:butt;stroke-linejoin:miter;stroke-opacity:1"
       inkscape:transform-center-x="-49.775468"
       inkscape:transform-center-y="-45.390049" />
    <path
       inkscape:connector-curvature="0"
       id="path5959"
       d="m 367.1079,468.17376 -11.64641,-33.46436 133.85745,-46.58565 11.64641,33.46436 z"
       style="color:#000000;clip-rule:nonzero;display:inline;overflow:visible;visibility:visible;opacity:1;isolation:auto;mix-blend-mode:normal;color-interpolation:sRGB;color-interpolation-filters:linearRGB;solid-color:#000000;solid-opacity:1;fill:#979797;fill-opacity:0.62745098;fill-rule:evenodd;stroke:#3d3d3d;stroke-width:1.5;stroke-linecap:butt;stroke-linejoin:miter;stroke-miterlimit:4;stroke-dasharray:none;stroke-dashoffset:0;stroke-opacity:1;color-rendering:auto;image-rendering:auto;shape-rendering:auto;text-rendering:auto;enable-background:accumulate"
       inkscape:transform-center-x="-61.053168"
       inkscape:transform-center-y="-39.935564" />
    <path
       sodipodi:nodetypes="cc"
       inkscape:connector-curvature="0"
       id="path5961"
       d="m 391.72555,431.46801 50.30844,-17.50856"
       style="fill:none;fill-rule:evenodd;stroke:#000000;stroke-width:0.5;stroke-linecap:butt;stroke-linejoin:miter;stroke-miterlimit:4;stroke-dasharray:1, 0.5;stroke-dashoffset:0;stroke-opacity:1"
       inkscape:transform-center-x="-49.719518"
       inkscape:transform-center-y="-45.370589" />
    <g
       transform="matrix(0.9444387,-0.32868758,0.32868758,0.9444387,-42.774907,344.24698)"
       id="g5963"
       inkscape:transform-center-x="-50.13085"
       inkscape:transform-center-y="-45.034669">
      <path
         style="fill:none;fill-rule:evenodd;stroke:#000000;stroke-width:0.5;stroke-linecap:butt;stroke-linejoin:miter;stroke-miterlimit:4;stroke-dasharray:none;stroke-opacity:1;marker-end:url(#Arrow2Mend-5)"
         d="m 408.38866,266.31582 0,-81.49606"
         id="path5965"
         inkscape:connector-curvature="0" />
      <path
         style="color:#000000;clip-rule:nonzero;display:inline;overflow:visible;visibility:visible;opacity:1;isolation:auto;mix-blend-mode:normal;color-interpolation:sRGB;color-interpolation-filters:linearRGB;solid-color:#000000;solid-opacity:1;fill:none;fill-opacity:1;fill-rule:evenodd;stroke:#000000;stroke-width:0.5;stroke-linecap:butt;stroke-linejoin:miter;stroke-miterlimit:4;stroke-dasharray:none;stroke-dashoffset:0;stroke-opacity:1;marker-end:url(#marker4478-1);color-rendering:auto;image-rendering:auto;shape-rendering:auto;text-rendering:auto;enable-background:accumulate"
         d="m 482.30316,225.18503 -147.08268,0"
         id="path5967"
         inkscape:connector-curvature="0"
         sodipodi:nodetypes="cc" />
    </g>
    <g
       id="g5969"
       style="fill:#000000;fill-opacity:1"
       transform="matrix(0.8782656,0,0,0.8782656,-1.2946764,318.66416)">
      <use
         id="use5971"
         y="134.765"
         x="313.89801"
         xlink:href="#textext-bffc25f9-8"
         width="100%"
         height="100%" />
    </g>
    <g
       id="g5973"
       style="fill:#000000;fill-opacity:1"
       transform="matrix(0.8782656,0,0,0.8782656,-59.961469,274.90035)">
      <use
         id="use5975"
         y="134.765"
         x="322.90918"
         xlink:href="#textext-bffc25f9-10"
         width="100%"
         height="100%" />
    </g>
    <g
       id="g5977"
       style="fill:#000000;fill-opacity:1"
       transform="matrix(0.82946803,-0.288675,0.288675,0.82946803,26.94593,428.27662)"
       inkscape:transform-center-x="24.71344"
       inkscape:transform-center-y="-26.230747">
      <use
         id="use5979"
         y="134.765"
         x="331.48001"
         xlink:href="#textext-bffc25f9-9"
         width="100%"
         height="100%" />
    </g>
    <g
       id="g5981"
       style="fill:#000000;fill-opacity:1"
       transform="matrix(0.82946803,-0.288675,0.288675,0.82946803,88.88943,365.30441)"
       inkscape:transform-center-x="-29.793933"
       inkscape:transform-center-y="-86.008712">
      <use
         id="use5983"
         y="134.765"
         x="322.90918"
         xlink:href="#textext-bffc25f9-10"
         width="100%"
         height="100%" />
    </g>
    <g
       id="g8434"
       transform="translate(-14,0)">
      <g
         transform="translate(16.576175,7.644787)"
         id="g7023">
        <path
           style="fill:none;fill-rule:evenodd;stroke:#000000;stroke-width:0.5;stroke-linecap:butt;stroke-linejoin:miter;stroke-miterlimit:4;stroke-dasharray:none;stroke-opacity:1"
           d="m 319.64569,460.52214 -11.41358,0.93193 7.87863,-9.74356"
           id="path5985-4"
           inkscape:connector-curvature="0"
           sodipodi:nodetypes="ccc" />
        <path
           style="color:#000000;clip-rule:nonzero;display:inline;overflow:visible;visibility:visible;opacity:1;isolation:auto;mix-blend-mode:normal;color-interpolation:sRGB;color-interpolation-filters:linearRGB;solid-color:#000000;solid-opacity:1;fill:none;fill-opacity:1;fill-rule:evenodd;stroke:#000000;stroke-width:0.30000001;stroke-linecap:butt;stroke-linejoin:miter;stroke-miterlimit:4;stroke-dasharray:none;stroke-dashoffset:0;stroke-opacity:1;marker:none;color-rendering:auto;image-rendering:auto;shape-rendering:auto;text-rendering:auto;enable-background:accumulate"
           id="path6703"
           sodipodi:type="arc"
           sodipodi:cx="308.23212"
           sodipodi:cy="461.45407"
           sodipodi:rx="8.9553909"
           sodipodi:ry="8.9553909"
           sodipodi:start="5.4125813"
           sodipodi:end="6.1949121"
           d="m 314.00266,454.60572 a 8.9553909,8.9553909 0 0 1 3.14998,6.05886"
           sodipodi:open="true" />
      </g>
      <path
         sodipodi:nodetypes="cccccccc"
         inkscape:connector-curvature="0"
         id="path7021"
         d="m 340.6116,461.9873 9.38844,-3.23942 -0.67002,-1.94184 4.37753,2.19872 -2.18347,4.16011 -0.58015,-1.68138 -9.38844,3.23941 z"
         style="fill:none;fill-rule:evenodd;stroke:#000000;stroke-width:0.5;stroke-linecap:butt;stroke-linejoin:miter;stroke-miterlimit:4;stroke-dasharray:none;stroke-opacity:1" />
    </g>
    <path
       style="color:#000000;clip-rule:nonzero;display:inline;overflow:visible;visibility:visible;opacity:1;isolation:auto;mix-blend-mode:normal;color-interpolation:sRGB;color-interpolation-filters:linearRGB;solid-color:#000000;solid-opacity:1;fill:none;fill-opacity:1;fill-rule:evenodd;stroke:#000000;stroke-width:0.5;stroke-linecap:butt;stroke-linejoin:miter;stroke-miterlimit:4;stroke-dasharray:none;stroke-dashoffset:0;stroke-opacity:1;marker:none;color-rendering:auto;image-rendering:auto;shape-rendering:auto;text-rendering:auto;enable-background:accumulate"
       id="path7027"
       sodipodi:type="arc"
       sodipodi:cx="367.30734"
       sodipodi:cy="468.29199"
       sodipodi:rx="42.653427"
       sodipodi:ry="42.653427"
       sodipodi:start="5.94854"
       sodipodi:end="6.2829179"
       sodipodi:open="true"
       d="m 407.59465,454.28315 a 42.653427,42.653427 0 0 1 2.36612,13.99744" />
    <path
       style="fill:none;fill-rule:evenodd;stroke:#000000;stroke-width:1px;stroke-linecap:butt;stroke-linejoin:miter;stroke-opacity:1"
       d="m 177.16535,581.70079 106.29922,0"
       id="path8125"
       inkscape:connector-curvature="0" />
    <path
       style="color:#000000;clip-rule:nonzero;display:inline;overflow:visible;visibility:visible;opacity:1;isolation:auto;mix-blend-mode:normal;color-interpolation:sRGB;color-interpolation-filters:linearRGB;solid-color:#000000;solid-opacity:1;fill:#ff6600;fill-opacity:1;fill-rule:evenodd;stroke:#803300;stroke-width:1px;stroke-linecap:butt;stroke-linejoin:miter;stroke-miterlimit:4;stroke-dasharray:none;stroke-dashoffset:0;stroke-opacity:1;color-rendering:auto;image-rendering:auto;shape-rendering:auto;text-rendering:auto;enable-background:accumulate"
       d="m 218.20439,546.08713 35.60738,-12.02309 12.02308,35.60738 -35.60738,12.02309 z"
       id="path8123"
       inkscape:connector-curvature="0"
       inkscape:transform-center-x="-0.011837588"
       inkscape:transform-center-y="-26.361668" />
    <path
       style="color:#000000;clip-rule:nonzero;display:inline;overflow:visible;visibility:visible;opacity:1;isolation:auto;mix-blend-mode:normal;color-interpolation:sRGB;color-interpolation-filters:linearRGB;solid-color:#000000;solid-opacity:1;fill:none;fill-opacity:0.82248523;fill-rule:evenodd;stroke:#3d3d3d;stroke-width:1.5;stroke-linecap:butt;stroke-linejoin:miter;stroke-miterlimit:4;stroke-dasharray:none;stroke-dashoffset:0;stroke-opacity:1;color-rendering:auto;image-rendering:auto;shape-rendering:auto;text-rendering:auto;enable-background:accumulate"
       d="M 277.70398,565.66373 230.22747,581.69451 214.19669,534.218"
       id="path8127"
       inkscape:connector-curvature="0"
       inkscape:transform-center-x="-0.011837588"
       inkscape:transform-center-y="-17.503398" />
    <g
       id="g8289"
       transform="translate(11.761897,2.6887176)">
      <path
         inkscape:transform-center-y="-26.361673"
         inkscape:transform-center-x="-0.011837588"
         style="color:#000000;clip-rule:nonzero;display:inline;overflow:visible;visibility:visible;opacity:1;isolation:auto;mix-blend-mode:normal;color-interpolation:sRGB;color-interpolation-filters:linearRGB;solid-color:#000000;solid-opacity:1;fill:none;fill-opacity:1;fill-rule:evenodd;stroke:#000000;stroke-width:0.5;stroke-linecap:butt;stroke-linejoin:miter;stroke-miterlimit:4;stroke-dasharray:none;stroke-dashoffset:0;stroke-opacity:1;marker-end:url(#marker8247);color-rendering:auto;image-rendering:auto;shape-rendering:auto;text-rendering:auto;enable-background:accumulate"
         d="m 186.02362,555.12598 88.58268,0"
         id="path8161"
         inkscape:connector-curvature="0" />
      <path
         inkscape:transform-center-y="-29.904973"
         inkscape:transform-center-x="-0.011837588"
         style="fill:none;fill-rule:evenodd;stroke:#000000;stroke-width:0.5;stroke-linecap:butt;stroke-linejoin:miter;stroke-miterlimit:4;stroke-dasharray:none;stroke-opacity:1;marker-end:url(#marker8189)"
         d="m 230.31496,592.33071 0,-81.49606"
         id="path8163"
         inkscape:connector-curvature="0" />
      <g
         inkscape:transform-center-y="-32.801718"
         inkscape:transform-center-x="-46.52384"
         transform="matrix(0.8782656,0,0,0.8782656,-1.2946764,432.21337)"
         style="fill:#000000;fill-opacity:1"
         id="g8173">
        <use
           height="100%"
           width="100%"
           xlink:href="#textext-bffc25f9-8"
           x="313.89801"
           y="134.765"
           id="use8175" />
      </g>
      <g
         inkscape:transform-center-y="-75.714709"
         inkscape:transform-center-x="4.3865656"
         transform="matrix(0.8782656,0,0,0.8782656,-59.961469,388.44956)"
         style="fill:#000000;fill-opacity:1"
         id="g8177">
        <use
           height="100%"
           width="100%"
           xlink:href="#textext-bffc25f9-10"
           x="322.90918"
           y="134.765"
           id="use8179" />
      </g>
    </g>
    <path
       style="fill:#ff6600;fill-rule:evenodd;stroke:#803300;stroke-width:1px;stroke-linecap:butt;stroke-linejoin:miter;stroke-opacity:1"
       d="m 404.73419,570.80163 -16.38345,-50.56148 50.56147,-16.38346 16.38346,50.56148 z"
       id="path8133"
       inkscape:connector-curvature="0"
       inkscape:transform-center-x="-50.706796"
       inkscape:transform-center-y="-44.488334" />
    <path
       style="color:#000000;clip-rule:nonzero;display:inline;overflow:visible;visibility:visible;opacity:1;isolation:auto;mix-blend-mode:normal;color-interpolation:sRGB;color-interpolation-filters:linearRGB;solid-color:#000000;solid-opacity:1;fill:#979797;fill-opacity:0.62745098;fill-rule:evenodd;stroke:#3d3d3d;stroke-width:1.5;stroke-linecap:butt;stroke-linejoin:miter;stroke-miterlimit:4;stroke-dasharray:none;stroke-dashoffset:0;stroke-opacity:1;color-rendering:auto;image-rendering:auto;shape-rendering:auto;text-rendering:auto;enable-background:accumulate"
       d="m 371.02654,581.72394 -13.86485,-42.78875 134.8306,-43.68922 13.86486,42.78875 z"
       id="path8135"
       inkscape:connector-curvature="0"
       sodipodi:nodetypes="ccccc"
       inkscape:transform-center-x="-60.393011"
       inkscape:transform-center-y="-43.332539" />
    <path
       style="fill:none;fill-rule:evenodd;stroke:#000000;stroke-width:0.5;stroke-linecap:butt;stroke-linejoin:miter;stroke-miterlimit:4;stroke-dasharray:1, 0.5;stroke-dashoffset:0;stroke-opacity:1"
       d="m 396.42975,545.55741 50.67419,-16.41998"
       id="path8137"
       inkscape:connector-curvature="0"
       sodipodi:nodetypes="cc"
       inkscape:transform-center-x="-50.650436"
       inkscape:transform-center-y="-44.470074" />
    <g
       transform="matrix(0.83549831,-0.27072688,0.27072688,0.83549831,31.8037,534.50311)"
       style="fill:#000000;fill-opacity:1"
       id="g8147"
       inkscape:transform-center-x="24.173213"
       inkscape:transform-center-y="-26.942673">
      <use
         height="100%"
         width="100%"
         xlink:href="#textext-bffc25f9-9"
         x="331.48001"
         y="134.765"
         id="use8149" />
    </g>
    <g
       transform="matrix(0.83549831,-0.27072688,0.27072688,0.83549831,95.09031,472.88087)"
       style="fill:#000000;fill-opacity:1"
       id="g8151"
       inkscape:transform-center-x="-31.606242"
       inkscape:transform-center-y="-85.511676">
      <use
         height="100%"
         width="100%"
         xlink:href="#textext-bffc25f9-10"
         x="322.90918"
         y="134.765"
         id="use8153" />
    </g>
    <path
       inkscape:connector-curvature="0"
       id="path8165"
       d="m 353.34322,581.95079 177.16536,0"
       style="fill:none;fill-rule:evenodd;stroke:#000000;stroke-width:1;stroke-linecap:butt;stroke-linejoin:miter;stroke-miterlimit:4;stroke-dasharray:none;stroke-opacity:1" />
    <path
       inkscape:connector-curvature="0"
       id="path8167"
       d="m 404.73419,570.80163 -16.38345,-50.56148 50.56147,-16.38346 16.38346,50.56148 z"
       style="fill:#ff6600;fill-rule:evenodd;stroke:#803300;stroke-width:1px;stroke-linecap:butt;stroke-linejoin:miter;stroke-opacity:1"
       inkscape:transform-center-x="-50.706796"
       inkscape:transform-center-y="-44.488334" />
    <path
       inkscape:connector-curvature="0"
       id="path8169"
       d="m 371.02654,581.72394 -5.14618,-15.88179 134.8306,-43.68922 5.14619,15.88179 z"
       style="color:#000000;clip-rule:nonzero;display:inline;overflow:visible;visibility:visible;opacity:1;isolation:auto;mix-blend-mode:normal;color-interpolation:sRGB;color-interpolation-filters:linearRGB;solid-color:#000000;solid-opacity:1;fill:#979797;fill-opacity:0.62745098;fill-rule:evenodd;stroke:#3d3d3d;stroke-width:1.5;stroke-linecap:butt;stroke-linejoin:miter;stroke-miterlimit:4;stroke-dasharray:none;stroke-dashoffset:0;stroke-opacity:1;color-rendering:auto;image-rendering:auto;shape-rendering:auto;text-rendering:auto;enable-background:accumulate"
       sodipodi:nodetypes="ccccc"
       inkscape:transform-center-x="-64.752346"
       inkscape:transform-center-y="-29.879059" />
    <path
       sodipodi:nodetypes="cc"
       inkscape:connector-curvature="0"
       id="path8171"
       d="m 401.44299,561.02891 50.67418,-16.41997"
       style="color:#000000;clip-rule:nonzero;display:inline;overflow:visible;visibility:visible;opacity:0.74299999;isolation:auto;mix-blend-mode:normal;color-interpolation:sRGB;color-interpolation-filters:linearRGB;solid-color:#000000;solid-opacity:1;fill:#ff6600;fill-opacity:1;fill-rule:evenodd;stroke:#803300;stroke-width:1;stroke-linecap:butt;stroke-linejoin:miter;stroke-miterlimit:4;stroke-dasharray:2, 1;stroke-dashoffset:0;stroke-opacity:1;color-rendering:auto;image-rendering:auto;shape-rendering:auto;text-rendering:auto;enable-background:accumulate"
       inkscape:transform-center-x="-55.663671"
       inkscape:transform-center-y="-28.998569" />
    <g
       id="g8181"
       style="fill:#000000;fill-opacity:1"
       transform="matrix(0.83549831,-0.27072688,0.27072688,0.83549831,31.8037,534.50311)"
       inkscape:transform-center-x="24.173213"
       inkscape:transform-center-y="-26.942673">
      <use
         id="use8183"
         y="134.765"
         x="331.48001"
         xlink:href="#textext-bffc25f9-9"
         width="100%"
         height="100%" />
    </g>
    <g
       id="g8185"
       style="fill:#000000;fill-opacity:1"
       transform="matrix(0.83549831,-0.27072688,0.27072688,0.83549831,95.09031,472.88087)"
       inkscape:transform-center-x="-31.606242"
       inkscape:transform-center-y="-85.511676">
      <use
         id="use8187"
         y="134.765"
         x="322.90918"
         xlink:href="#textext-bffc25f9-10"
         width="100%"
         height="100%" />
    </g>
    <path
       style="fill:none;fill-rule:evenodd;stroke:#000000;stroke-width:0.5;stroke-linecap:butt;stroke-linejoin:miter;stroke-miterlimit:4;stroke-dasharray:1.5, 1.5;stroke-dashoffset:0;stroke-opacity:1"
       d="m 392.35222,532.97362 50.67419,-16.41997"
       id="path8397"
       inkscape:connector-curvature="0"
       sodipodi:nodetypes="cc"
       inkscape:transform-center-x="-46.572906"
       inkscape:transform-center-y="-57.053859" />
    <g
       transform="matrix(0.95130483,-0.30825172,0.30825172,0.95130483,-36.089491,448.99001)"
       id="g8399"
       inkscape:transform-center-x="-51.064866"
       inkscape:transform-center-y="-44.130263">
      <path
         style="fill:none;fill-rule:evenodd;stroke:#000000;stroke-width:0.5;stroke-linecap:butt;stroke-linejoin:miter;stroke-miterlimit:4;stroke-dasharray:none;stroke-opacity:1;marker-end:url(#Arrow2Mend-5)"
         d="m 408.38866,266.31582 0,-81.49606"
         id="path8401"
         inkscape:connector-curvature="0" />
      <path
         style="color:#000000;clip-rule:nonzero;display:inline;overflow:visible;visibility:visible;opacity:1;isolation:auto;mix-blend-mode:normal;color-interpolation:sRGB;color-interpolation-filters:linearRGB;solid-color:#000000;solid-opacity:1;fill:none;fill-opacity:1;fill-rule:evenodd;stroke:#000000;stroke-width:0.5;stroke-linecap:butt;stroke-linejoin:miter;stroke-miterlimit:4;stroke-dasharray:none;stroke-dashoffset:0;stroke-opacity:1;marker-end:url(#marker4478-1);color-rendering:auto;image-rendering:auto;shape-rendering:auto;text-rendering:auto;enable-background:accumulate"
         d="m 482.30316,225.18503 -147.08268,0"
         id="path8403"
         inkscape:connector-curvature="0"
         sodipodi:nodetypes="cc" />
    </g>
    <g
       id="g8440"
       transform="translate(13.5,0)">
      <g
         id="g8405"
         transform="translate(-10.923825,119.14479)">
        <path
           sodipodi:nodetypes="ccc"
           inkscape:connector-curvature="0"
           id="path8407"
           d="m 319.64569,460.52214 -11.41358,0.93193 7.87863,-9.74356"
           style="fill:none;fill-rule:evenodd;stroke:#000000;stroke-width:0.5;stroke-linecap:butt;stroke-linejoin:miter;stroke-miterlimit:4;stroke-dasharray:none;stroke-opacity:1" />
        <path
           sodipodi:open="true"
           d="m 314.00266,454.60572 a 8.9553909,8.9553909 0 0 1 3.14998,6.05886"
           sodipodi:end="6.1949121"
           sodipodi:start="5.4125813"
           sodipodi:ry="8.9553909"
           sodipodi:rx="8.9553909"
           sodipodi:cy="461.45407"
           sodipodi:cx="308.23212"
           sodipodi:type="arc"
           id="path8409"
           style="color:#000000;clip-rule:nonzero;display:inline;overflow:visible;visibility:visible;opacity:1;isolation:auto;mix-blend-mode:normal;color-interpolation:sRGB;color-interpolation-filters:linearRGB;solid-color:#000000;solid-opacity:1;fill:none;fill-opacity:1;fill-rule:evenodd;stroke:#000000;stroke-width:0.30000001;stroke-linecap:butt;stroke-linejoin:miter;stroke-miterlimit:4;stroke-dasharray:none;stroke-dashoffset:0;stroke-opacity:1;marker:none;color-rendering:auto;image-rendering:auto;shape-rendering:auto;text-rendering:auto;enable-background:accumulate" />
      </g>
      <path
         style="fill:none;fill-rule:evenodd;stroke:#000000;stroke-width:0.5;stroke-linecap:butt;stroke-linejoin:miter;stroke-miterlimit:4;stroke-dasharray:none;stroke-opacity:1"
         d="m 313.1116,573.4873 9.38844,-3.23942 -0.67002,-1.94184 4.37753,2.19872 -2.18347,4.16011 -0.58015,-1.68138 -9.38844,3.23941 z"
         id="path8411"
         inkscape:connector-curvature="0"
         sodipodi:nodetypes="cccccccc" />
    </g>
    <g
       id="g10649"
       style="fill:#000000;fill-opacity:1"
       transform="matrix(1.4230119,0,0,1.4230119,131.58777,384.77603)">
      <use
         id="use10651"
         y="134.765"
         x="223.43201"
         xlink:href="#textext-0f84b141-1"
         width="100%"
         height="100%" />
    </g>
    <g
       id="g10653"
       style="fill:#000000;fill-opacity:1"
       transform="matrix(0.98667052,0,0,0.98667052,49.936878,442.575)">
      <use
         id="use10655"
         y="134.765"
         x="231.70494"
         xlink:href="#textext-0f84b141-2"
         width="100%"
         height="100%" />
    </g>
    <g
       transform="matrix(1.4230119,0,0,1.4230119,132.26557,269.68476)"
       style="fill:#000000;fill-opacity:1"
       id="g10911">
      <use
         height="100%"
         width="100%"
         xlink:href="#textext-0f84b141-1"
         x="223.43201"
         y="134.765"
         id="use10913" />
    </g>
  </g>
</svg>
